{
  "compilerOptions": {
    "outDir": "public/dist/",
    "noImplicitAny": true,
    "module": "es6",
    "target": "es5",
    "moduleResolution": "node",
    "sourceMap": true,
  },
  "include": [
    "src/**/*"
  ]
}
